Scale a parameter in a data frame — scale_param • harpCore
…
    Examples

# Make a data frame of 2m temperature observations in degrees C
library(tibble)
obs <- tibble(
  valid_date = rep(seq_dttm(2022081500, 2022081523), 3),
  SID        = c(rep(1001, 24), rep(1002, 24), rep(1003, 24)),
  units      = "degC",
  T2m        = rnorm(24 * 3, 15, 2)
)

# Scale to be in Kelvin
scale_param(obs, 273.15, "K", col = T2m)
#> # A tibble: 72 × 4
#>    valid_date   SID units   T2m
#>    <chr>      <dbl> <chr> <dbl>
#>  1 2022081500  1001 K      291.
#>  2 2022081501  1001 K      291.
#>  3 2022081502  1001 K      293.
#>  4 2022081503  1001 K      287.
#>  5 2022081504  1001 K      286.
#>  6 2022081505  1001 K      288.
#>  7 2022081506  1001 K      288.
#>  8 2022081507  1001 K      289.
#>  9 2022081508  1001 K      287.
#> 10 2022081509  1001 K      290.
#> # ℹ 62 more rows

# col can be a quoted, or if a variable is must be wrapped in {{}}
scale_param(obs, 273.15, "K", col = "T2m")
#> # A tibble: 72 × 4
#>    valid_date   SID units   T2m
#>    <chr>      <dbl> <chr> <dbl>
#>  1 2022081500  1001 K      291.
#>  2 2022081501  1001 K      291.
#>  3 2022081502  1001 K      293.
#>  4 2022081503  1001 K      287.
#>  5 2022081504  1001 K      286.
#>  6 2022081505  1001 K      288.
#>  7 2022081506  1001 K      288.
#>  8 2022081507  1001 K      289.
#>  9 2022081508  1001 K      287.
#> 10 2022081509  1001 K      290.
#> # ℹ 62 more rows
prm <- "T2m"
scale_param(obs, 273.15, "K", col = {{prm}})
#> # A tibble: 72 × 4
#>    valid_date   SID units   T2m
#>    <chr>      <dbl> <chr> <dbl>
#>  1 2022081500  1001 K      291.
#>  2 2022081501  1001 K      291.
#>  3 2022081502  1001 K      293.
#>  4 2022081503  1001 K      287.
#>  5 2022081504  1001 K      286.
#>  6 2022081505  1001 K      288.
#>  7 2022081506  1001 K      288.
#>  8 2022081507  1001 K      289.
#>  9 2022081508  1001 K      287.
#> 10 2022081509  1001 K      290.
#> # ℹ 62 more rows
…
